---------------------------------------------------
| countryName    | rank2015 | rank2016 | rank2017 |
===================================================
| "Switzerland"  | "1"      | "2"      | "4"      |
| "Iceland"      | "2"      | "3"      | "3"      |
| "Denmark"      | "3"      | "1"      | "2"      |
| "Norway"       | "4"      | "4"      | "1"      |
| "Canada"       | "5"      | "6"      | "7"      |
| "Finland"      | "6"      | "5"      | "5"      |
| "Netherlands"  | "7"      | "7"      | "6"      |
| "Sweden"       | "8"      | "10"     | "9"      |
| "Australia"    | "10"     | "9"      | "10"     |
| "Israel"       | "11"     | "11"     | "11"     |
| "Austria"      | "13"     | "12"     | "13"     |
| "Mexico"       | "14"     | "21"     | "25"     |
| "Brazil"       | "16"     | "17"     | "22"     |
| "Luxembourg"   | "17"     | "20"     | "18"     |
| "Ireland"      | "18"     | "19"     | "15"     |
| "Belgium"      | "19"     | "18"     | "17"     |
| "Venezuela"    | "23"     | "44"     | "82"     |
| "Singapore"    | "24"     | "22"     | "26"     |
| "Panama"       | "25"     | "25"     | "30"     |
| "Germany"      | "26"     | "16"     | "16"     |
| "Chile"        | "27"     | "24"     | "20"     |
| "Qatar"        | "28"     | "36"     | "35"     |
| "France"       | "29"     | "32"     | "31"     |
| "Argentina"    | "30"     | "26"     | "24"     |
| "Uruguay"      | "32"     | "29"     | "28"     |
| "Colombia"     | "33"     | "31"     | "36"     |
| "Thailand"     | "34"     | "33"     | "32"     |
| "Spain"        | "36"     | "37"     | "34"     |
| "Malta"        | "37"     | "30"     | "27"     |
| "Kuwait"       | "39"     | "41"     | "39"     |
| "Guatemala"    | "43"     | "39"     | "29"     |
| "Uzbekistan"   | "44"     | "49"     | "47"     |
| "Slovakia"     | "45"     | "45"     | "40"     |
| "Japan"        | "46"     | "53"     | "51"     |
| "Ecuador"      | "48"     | "51"     | "44"     |
| "Bahrain"      | "49"     | "42"     | "41"     |
| "Italy"        | "50"     | "50"     | "48"     |
| "Bolivia"      | "51"     | "59"     | "58"     |
| "Moldova"      | "52"     | "55"     | "56"     |
| "Paraguay"     | "53"     | "70"     | "70"     |
| "Kazakhstan"   | "54"     | "54"     | "60"     |
| "Slovenia"     | "55"     | "63"     | "62"     |
| "Lithuania"    | "56"     | "60"     | "52"     |
| "Nicaragua"    | "57"     | "48"     | "43"     |
| "Peru"         | "58"     | "64"     | "63"     |
| "Belarus"      | "59"     | "61"     | "67"     |
| "Poland"       | "60"     | "57"     | "46"     |
| "Malaysia"     | "61"     | "47"     | "42"     |
| "Croatia"      | "62"     | "74"     | "77"     |
| "Libya"        | "63"     | "67"     | "68"     |
| "Russia"       | "64"     | "56"     | "49"     |
| "Jamaica"      | "65"     | "73"     | "76"     |
| "Cyprus"       | "67"     | "69"     | "65"     |
| "Algeria"      | "68"     | "38"     | "53"     |
| "Kosovo"       | "69"     | "77"     | "78"     |
| "Turkmenistan" | "70"     | "65"     | "59"     |
| "Mauritius"    | "71"     | "66"     | "64"     |
| "Estonia"      | "73"     | "72"     | "66"     |
| "Indonesia"    | "74"     | "79"     | "81"     |
| "Vietnam"      | "75"     | "96"     | "94"     |
| "Turkey"       | "76"     | "78"     | "69"     |
| "Kyrgyzstan"   | "77"     | "85"     | "98"     |
| "Nigeria"      | "78"     | "103"    | "95"     |
| "Bhutan"       | "79"     | "84"     | "97"     |
| "Azerbaijan"   | "80"     | "81"     | "85"     |
| "Pakistan"     | "81"     | "92"     | "80"     |
| "Jordan"       | "82"     | "80"     | "74"     |
| "Montenegro"   | "82"     | "88"     | "83"     |
| "China"        | "84"     | "83"     | "79"     |
| "Zambia"       | "85"     | "106"    | "116"    |
| "Romania"      | "86"     | "71"     | "57"     |
| "Serbia"       | "87"     | "86"     | "73"     |
| "Portugal"     | "88"     | "94"     | "89"     |
| "Latvia"       | "89"     | "68"     | "54"     |
| "Philippines"  | "90"     | "82"     | "72"     |
| "Morocco"      | "92"     | "90"     | "84"     |
| "Macedonia"    | "93"     | "95"     | "92"     |
| "Albania"      | "95"     | "109"    | "109"    |
| "Mongolia"     | "100"    | "101"    | "100"    |
| "Greece"       | "102"    | "99"     | "87"     |
| "Lebanon"      | "103"    | "93"     | "88"     |
| "Hungary"      | "104"    | "91"     | "75"     |
| "Honduras"     | "105"    | "104"    | "91"     |
| "Tajikistan"   | "106"    | "100"    | "96"     |
| "Tunisia"      | "107"    | "98"     | "102"    |
| "Bangladesh"   | "109"    | "110"    | "110"    |
| "Iran"         | "110"    | "105"    | "108"    |
| "Ukraine"      | "111"    | "123"    | "132"    |
| "Iraq"         | "112"    | "112"    | "117"    |
| "Ghana"        | "114"    | "124"    | "131"    |
| "Zimbabwe"     | "115"    | "131"    | "138"    |
| "Liberia"      | "116"    | "150"    | "148"    |
| "India"        | "117"    | "118"    | "122"    |
| "Sudan"        | "118"    | "133"    | "130"    |
| "Haiti"        | "119"    | "136"    | "145"    |
| "Nepal"        | "121"    | "107"    | "99"     |
| "Ethiopia"     | "122"    | "115"    | "119"    |
| "Mauritania"   | "124"    | "130"    | "123"    |
| "Kenya"        | "125"    | "122"    | "112"    |
| "Armenia"      | "127"    | "121"    | "121"    |
| "Botswana"     | "128"    | "137"    | "142"    |
| "Myanmar"      | "129"    | "119"    | "114"    |
| "Georgia"      | "130"    | "126"    | "125"    |
| "Malawi"       | "131"    | "132"    | "136"    |
| "Cameroon"     | "133"    | "114"    | "107"    |
| "Bulgaria"     | "134"    | "129"    | "105"    |
| "Egypt"        | "135"    | "120"    | "104"    |
| "Yemen"        | "136"    | "147"    | "146"    |
| "Angola"       | "137"    | "141"    | "140"    |
| "Mali"         | "138"    | "135"    | "127"    |
| "Uganda"       | "141"    | "145"    | "133"    |
| "Senegal"      | "142"    | "128"    | "115"    |
| "Gabon"        | "143"    | "134"    | "118"    |
| "Niger"        | "144"    | "142"    | "135"    |
| "Cambodia"     | "145"    | "140"    | "129"    |
| "Tanzania"     | "146"    | "149"    | "153"    |
| "Madagascar"   | "147"    | "148"    | "144"    |
| "Chad"         | "149"    | "144"    | "137"    |
| "Guinea"       | "150"    | "151"    | "149"    |
| "Afghanistan"  | "153"    | "154"    | "141"    |
| "Rwanda"       | "154"    | "152"    | "151"    |
| "Benin"        | "155"    | "153"    | "143"    |
| "Syria"        | "156"    | "156"    | "152"    |
| "Burundi"      | "157"    | "157"    | "154"    |
| "Togo"         | "158"    | "155"    | "150"    |
---------------------------------------------------
